{
  "status_code": 400,
  "error_name": "ContextError",
  "error_time": 1415970967,
  "error_messages": "Missing request parameters",
  "error_reason": "",
  "error_code": 100,
  "status_messages": "400 ContextError"
}